{
	"columns": [
		{
			"column_comment": null,
			"column_id": "STAGING.FIFA_R_HRL_LEAGUE_DBO_LEAGUE_ALL_U_YYY_Q3_PSA_FIFA.MY_SOURCE_COLUMN_NAME",
			"column_name": "MY_SOURCE_COLUMN_NAME",
			"column_order": 1,
			"complete_data_type": "VARCHAR(2000000) UTF8",
			"jdbc_data_type": {
				"character_maximum_length": 2000000,
				"data_type_name": "VARCHAR UTF8",
				"jdbc_data_type_id": 12,
				"numeric_precision": null,
				"numeric_scale": null
			}
		},
		{
			"column_comment": null,
			"column_id": "STAGING.FIFA_R_HRL_LEAGUE_DBO_LEAGUE_ALL_U_YYY_Q3_PSA_FIFA.id",
			"column_name": "id",
			"column_order": 2,
			"complete_data_type": "DECIMAL(18,0)",
			"jdbc_data_type": {
				"character_maximum_length": 18,
				"data_type_name": "DECIMAL",
				"jdbc_data_type_id": 2,
				"numeric_precision": 18,
				"numeric_scale": 0
			}
		},
		{
			"column_comment": null,
			"column_id": "STAGING.FIFA_R_HRL_LEAGUE_DBO_LEAGUE_ALL_U_YYY_Q3_PSA_FIFA.country_id",
			"column_name": "country_id",
			"column_order": 3,
			"complete_data_type": "DECIMAL(18,0)",
			"jdbc_data_type": {
				"character_maximum_length": 18,
				"data_type_name": "DECIMAL",
				"jdbc_data_type_id": 2,
				"numeric_precision": 18,
				"numeric_scale": 0
			}
		},
		{
			"column_comment": null,
			"column_id": "STAGING.FIFA_R_HRL_LEAGUE_DBO_LEAGUE_ALL_U_YYY_Q3_PSA_FIFA.name",
			"column_name": "name",
			"column_order": 4,
			"complete_data_type": "VARCHAR(2000000) UTF8",
			"jdbc_data_type": {
				"character_maximum_length": 2000000,
				"data_type_name": "VARCHAR UTF8",
				"jdbc_data_type_id": 12,
				"numeric_precision": null,
				"numeric_scale": null
			}
		}
	],
	"loading_batch_size": 50000,
	"source_schema_name": "YYY_Q3_PSA_FIFA",
	"source_schema_or_system_id": "YYY_Q3_PSA_FIFA",
	"source_table_id": "YYY_Q3_PSA_FIFA.HRL_LEAGUE_DBO_LEAGUE_ALL",
	"source_table_name": "HRL_LEAGUE_DBO_LEAGUE_ALL",
	"source_table_staging_id": "HRL_LEAGUE_DBO_LEAGUE_ALL",
	"source_table_type_id": "VIEW",
	"staging_table_comment": null,
	"staging_table_display_string": "Hrl League Dbo League All (YYY_Q3_PSA_FIFA) [FIFA_R_HRL_LEAGUE_DBO_LEAGUE_ALL_U_YYY_Q3_PSA_FIFA]",
	"staging_table_id": "STAGING.FIFA_R_HRL_LEAGUE_DBO_LEAGUE_ALL_U_YYY_Q3_PSA_FIFA",
	"staging_table_name": "Hrl League Dbo League All",
	"system_id": "FIFA",
	"where_clause_delta_part_template": null,
	"where_clause_general_part": null
}