{
	"hub_a_id": "H_SEASON",
	"hub_b_id": "H_MATCH",
	"link_comment": "",
	"link_id": "L_SEASON_T_MATCH",
	"link_subject_area_name": "",
	"link_suffix_id": null,
	"link_suffix_name": "",
	"link_type": "one_to_many"
}