{
	"business_key_prefix": "",
	"business_key_short": "id",
	"column_ids": [
		{
			"column_id": "STAGING.FIFA_R_HRL_LEAGUE_DBO_LEAGUE_ALL_U_YYY_Q3_PSA_FIFA.id",
			"column_order": 1
		}
	],
	"datavault_category_id": "raw_vault",
	"hub_id": "H_LEAGUE",
	"hub_load_display_name": "fifa: HRL LEAGUE DBO LEAGUE ALL U YYY Q3 PSA FIFA (id)",
	"hub_load_id": "H_LEAGUE_S_FIFA_R_HRL_LEAGUE_DBO_LEAGUE_ALL_U_YYY_Q3_PSA_FIFA",
	"keys_are_prehashed": false,
	"keys_are_unique": true,
	"staging_table_id": "STAGING.FIFA_R_HRL_LEAGUE_DBO_LEAGUE_ALL_U_YYY_Q3_PSA_FIFA",
	"system_id": "FIFA",
	"system_name": "fifa"
}