{
	"business_rules_businessobject_container_display_name": "League",
	"business_rules_businessobject_container_id": "H_LEAGUE_C_dvb_default",
	"business_rules_businessobject_container_order": 1,
	"business_rules_businessobject_systems": [
		{
			"related_businessobject_view_id": "BUSINESSOBJECTS.LEAGUE_S_DVB_HUB",
			"system_id": "DVB_HUB",
			"system_order": 1
		}
	]
}